tb/compressor4to2_tb.vcd
$date
	Wed Aug  4 14:06:56 2021
$end
$version
	Icarus Verilog
$end
$timescale
	1s
$end
$scope module compressor4to2_tb $end
$var wire 1 ! sout3 $end
$var wire 1 " sout2 $end
$var wire 1 # sout1 $end
$var reg 1 $ a0 $end
$var reg 1 % a1 $end
$var reg 1 & a2 $end
$var reg 1 ' a3 $end
$var reg 1 ( cin $end
$var integer 32 ) i [31:0] $end
$scope module CMP4to2 $end
$var wire 1 * GND $end
$var wire 1 + PWR $end
$var wire 1 $ a0 $end
$var wire 1 % a1 $end
$var wire 1 & a2 $end
$var wire 1 ' a3 $end
$var wire 1 ( cin $end
$var wire 1 , m1 $end
$var wire 1 - m2 $end
$var wire 1 . m3 $end
$var wire 1 / m4 $end
$var wire 1 # sout1 $end
$var wire 1 " sout2 $end
$var wire 1 ! sout3 $end
$var wire 1 0 xo1 $end
$var wire 1 1 xo2 $end
$var wire 1 2 xn2 $end
$var wire 1 3 xn1 $end
$scope module MUX1 $end
$var wire 1 4 GND $end
$var wire 1 5 PWR $end
$var wire 1 6 h $end
$var wire 1 $ i0 $end
$var wire 1 & i1 $end
$var wire 1 0 s $end
$var wire 1 7 s_bar $end
$var wire 1 8 w1 $end
$var wire 1 9 w2 $end
$var wire 1 : w3 $end
$var wire 1 , y $end
$scope module INV1 $end
$var wire 1 ; GND $end
$var wire 1 < PWR $end
$var wire 1 0 in $end
$var wire 1 7 out $end
$upscope $end
$scope module INV2 $end
$var wire 1 = GND $end
$var wire 1 > PWR $end
$var wire 1 6 in $end
$var wire 1 , out $end
$upscope $end
$upscope $end
$scope module MUX2 $end
$var wire 1 ? GND $end
$var wire 1 @ PWR $end
$var wire 1 A h $end
$var wire 1 0 i0 $end
$var wire 1 1 s $end
$var wire 1 B s_bar $end
$var wire 1 C w1 $end
$var wire 1 D w2 $end
$var wire 1 E w3 $end
$var wire 1 - y $end
$var wire 1 3 i1 $end
$scope module INV1 $end
$var wire 1 F GND $end
$var wire 1 G PWR $end
$var wire 1 1 in $end
$var wire 1 B out $end
$upscope $end
$scope module INV2 $end
$var wire 1 H GND $end
$var wire 1 I PWR $end
$var wire 1 A in $end
$var wire 1 - out $end
$upscope $end
$upscope $end
$scope module MUX3 $end
$var wire 1 J GND $end
$var wire 1 K PWR $end
$var wire 1 L h $end
$var wire 1 - i0 $end
$var wire 1 - i1 $end
$var wire 1 ( s $end
$var wire 1 M s_bar $end
$var wire 1 N w1 $end
$var wire 1 O w2 $end
$var wire 1 P w3 $end
$var wire 1 . y $end
$scope module INV1 $end
$var wire 1 Q GND $end
$var wire 1 R PWR $end
$var wire 1 ( in $end
$var wire 1 M out $end
$upscope $end
$scope module INV2 $end
$var wire 1 S GND $end
$var wire 1 T PWR $end
$var wire 1 L in $end
$var wire 1 . out $end
$upscope $end
$upscope $end
$scope module MUX4 $end
$var wire 1 U GND $end
$var wire 1 V PWR $end
$var wire 1 W h $end
$var wire 1 ( i0 $end
$var wire 1 ' i1 $end
$var wire 1 - s $end
$var wire 1 X s_bar $end
$var wire 1 Y w1 $end
$var wire 1 Z w2 $end
$var wire 1 [ w3 $end
$var wire 1 / y $end
$scope module INV1 $end
$var wire 1 \ GND $end
$var wire 1 ] PWR $end
$var wire 1 - in $end
$var wire 1 X out $end
$upscope $end
$scope module INV2 $end
$var wire 1 ^ GND $end
$var wire 1 _ PWR $end
$var wire 1 W in $end
$var wire 1 / out $end
$upscope $end
$upscope $end
$scope module XOR_XNOR1 $end
$var wire 1 ` GND $end
$var wire 1 a PWR $end
$var wire 1 $ a $end
$var wire 1 b a_bar $end
$var wire 1 % b $end
$var wire 1 c b_bar $end
$var wire 1 d w1 $end
$var wire 1 e w2 $end
$var wire 1 f w3 $end
$var wire 1 g w4 $end
$var wire 1 3 xnor_o $end
$var wire 1 0 xor_o $end
$scope module INV1 $end
$var wire 1 h GND $end
$var wire 1 i PWR $end
$var wire 1 $ in $end
$var wire 1 b out $end
$upscope $end
$scope module INV2 $end
$var wire 1 j GND $end
$var wire 1 k PWR $end
$var wire 1 % in $end
$var wire 1 c out $end
$upscope $end
$scope module INV3 $end
$var wire 1 l GND $end
$var wire 1 m PWR $end
$var wire 1 e in $end
$var wire 1 0 out $end
$upscope $end
$upscope $end
$scope module XOR_XNOR2 $end
$var wire 1 n GND $end
$var wire 1 o PWR $end
$var wire 1 & a $end
$var wire 1 p a_bar $end
$var wire 1 ' b $end
$var wire 1 q b_bar $end
$var wire 1 r w1 $end
$var wire 1 s w2 $end
$var wire 1 t w3 $end
$var wire 1 u w4 $end
$var wire 1 2 xnor_o $end
$var wire 1 1 xor_o $end
$scope module INV1 $end
$var wire 1 v GND $end
$var wire 1 w PWR $end
$var wire 1 & in $end
$var wire 1 p out $end
$upscope $end
$scope module INV2 $end
$var wire 1 x GND $end
$var wire 1 y PWR $end
$var wire 1 ' in $end
$var wire 1 q out $end
$upscope $end
$scope module INV3 $end
$var wire 1 z GND $end
$var wire 1 { PWR $end
$var wire 1 s in $end
$var wire 1 1 out $end
$upscope $end
$upscope $end
$upscope $end
$upscope $end
$enddefinitions $end
#0
$dumpvars
1{
0z
1y
0x
1w
0v
zu
0t
1s
1r
1q
1p
1o
0n
1m
0l
1k
0j
1i
0h
zg
0f
1e
1d
1c
1b
1a
0`
1_
0^
1]
0\
z[
zZ
1Y
1X
1W
1V
0U
1T
0S
1R
0Q
zP
zO
1N
1M
1L
1K
0J
1I
0H
1G
0F
0E
zD
1C
1B
1A
1@
0?
1>
0=
1<
0;
z:
z9
18
17
16
15
04
13
12
01
00
0/
0.
0-
0,
1+
0*
b0 )
0(
0'
0&
0%
0$
0#
0"
0!
$end
#5
b1 )
#10
b10 )
09
zE
03
07
zC
zN
1#
1.
0L
0O
0P
0X
1-
0A
0D
10
0e
0g
zf
0b
1$
#15
b11 )
zd
0c
1%
z9
zE
03
18
0"
0,
16
07
zC
zN
1#
1.
0L
0O
0P
0X
1-
0A
0D
10
0e
zg
0f
1b
0$
#20
b100 )
z8
1"
1,
06
09
0g
1d
0E
13
17
1C
1N
0#
0.
1L
zO
zP
1X
0-
1A
zD
00
1e
zf
0b
1$
#25
b101 )
0:
02
0B
11
0s
0u
zt
0p
1&
1c
0%
z9
zg
1d
0E
13
18
0"
0,
16
17
1C
zN
1#
1.
0L
0O
0P
0X
1-
0A
zD
00
1e
0f
1b
0$
#30
b110 )
09
zE
1N
0#
0.
1L
zO
zP
1X
0-
1A
03
1"
1,
06
07
0D
10
0e
0g
zf
0b
1$
#35
b111 )
zd
0c
1%
z9
zE
1N
0#
0.
1L
zO
zP
1X
0-
1A
03
1"
1,
06
18
07
0D
10
0e
zg
0f
1b
0$
#40
b1000 )
z8
09
0g
1d
0E
zN
1#
1.
0L
0O
0P
0X
1-
0A
13
1"
1,
06
17
zD
00
1e
zf
0b
1$
#45
b1001 )
1!
1/
0W
0[
zr
0q
1'
z:
02
0B
11
0s
zu
0t
1p
0&
1c
0%
z9
zg
1d
0E
zN
1#
1.
0L
0O
0P
0X
1-
0A
13
18
0"
0,
16
17
zD
00
1e
0f
1b
0$
#50
b1010 )
09
zE
1N
0#
0.
1L
zO
zP
0!
0/
1W
1X
0-
1A
03
07
0D
10
0e
0g
zf
0b
1$
#55
b1011 )
zd
0c
1%
z9
zE
1N
0#
0.
1L
zO
zP
0!
0/
1W
1X
0-
1A
03
18
0"
0,
16
07
0D
10
0e
zg
0f
1b
0$
#60
b1100 )
z8
1"
1,
06
09
0g
1d
0E
zN
1#
1.
0L
0O
0P
1!
1/
0W
0X
1-
0A
13
17
zD
00
1e
zf
0b
1$
#65
b1101 )
0:
0u
1r
12
1B
01
1s
zt
0p
1&
1c
0%
z9
zg
1d
0E
1N
0#
0.
1L
zO
zP
0!
0/
1W
1X
0-
1A
13
18
0"
0,
16
17
zD
00
1e
0f
1b
0$
#70
b1110 )
09
zE
03
1"
1,
06
07
zC
zN
1#
1.
0L
0O
0P
1!
1/
0W
0X
1-
0A
0D
10
0e
0g
zf
0b
1$
#75
b1111 )
zd
0c
1%
z9
zE
03
1"
1,
06
18
07
zC
zN
1#
1.
0L
0O
0P
1!
1/
0W
0X
1-
0A
0D
10
0e
zg
0f
1b
0$
#80
b10000 )
z8
09
0g
1d
0E
13
1"
1,
06
17
1C
1N
0#
0.
1L
zO
zP
0!
0/
1W
1X
0-
1A
zD
00
1e
zf
0b
1$
