tb/compressor4to2_tb.vcd
$date
	Tue Aug  3 00:03:14 2021
$end
$version
	Icarus Verilog
$end
$timescale
	1s
$end
$scope module compressor4to2_tb $end
$var wire 1 ! cout $end
$var wire 1 " sout $end
$var reg 1 # a0 $end
$var reg 1 $ a1 $end
$var reg 1 % a2 $end
$var reg 1 & a3 $end
$var integer 32 ' i [31:0] $end
$scope module CMP4to2 $end
$var wire 1 ( GND $end
$var wire 1 ) PWR $end
$var wire 1 # a0 $end
$var wire 1 $ a1 $end
$var wire 1 % a2 $end
$var wire 1 & a3 $end
$var wire 1 ! cout $end
$var wire 1 " sout $end
$var wire 1 * xo1 $end
$var wire 1 + xo2 $end
$var wire 1 , xn2 $end
$var wire 1 - xn1 $end
$var wire 1 . null $end
$scope module MUX1 $end
$var wire 1 / GND $end
$var wire 1 0 PWR $end
$var wire 1 1 h $end
$var wire 1 * i0 $end
$var wire 1 + s $end
$var wire 1 2 s_bar $end
$var wire 1 3 w1 $end
$var wire 1 4 w2 $end
$var wire 1 5 w3 $end
$var wire 1 " y $end
$var wire 1 - i1 $end
$scope module INV1 $end
$var wire 1 6 GND $end
$var wire 1 7 PWR $end
$var wire 1 + in $end
$var wire 1 2 out $end
$upscope $end
$scope module INV2 $end
$var wire 1 8 GND $end
$var wire 1 9 PWR $end
$var wire 1 1 in $end
$var wire 1 " out $end
$upscope $end
$upscope $end
$scope module OR_NOR1 $end
$var wire 1 : GND $end
$var wire 1 ; PWR $end
$var wire 1 * a $end
$var wire 1 + b $end
$var wire 1 < h $end
$var wire 1 = w1 $end
$var wire 1 . ynor $end
$var wire 1 ! yor $end
$scope module INV0 $end
$var wire 1 > GND $end
$var wire 1 ? PWR $end
$var wire 1 < in $end
$var wire 1 ! out $end
$upscope $end
$upscope $end
$scope module XOR_XNOR1 $end
$var wire 1 @ GND $end
$var wire 1 A PWR $end
$var wire 1 # a $end
$var wire 1 B a_bar $end
$var wire 1 $ b $end
$var wire 1 C b_bar $end
$var wire 1 D w1 $end
$var wire 1 E w2 $end
$var wire 1 F w3 $end
$var wire 1 G w4 $end
$var wire 1 - xnor_o $end
$var wire 1 * xor_o $end
$scope module INV1 $end
$var wire 1 H GND $end
$var wire 1 I PWR $end
$var wire 1 # in $end
$var wire 1 B out $end
$upscope $end
$scope module INV2 $end
$var wire 1 J GND $end
$var wire 1 K PWR $end
$var wire 1 $ in $end
$var wire 1 C out $end
$upscope $end
$scope module INV3 $end
$var wire 1 L GND $end
$var wire 1 M PWR $end
$var wire 1 E in $end
$var wire 1 * out $end
$upscope $end
$upscope $end
$scope module XOR_XNOR2 $end
$var wire 1 N GND $end
$var wire 1 O PWR $end
$var wire 1 % a $end
$var wire 1 P a_bar $end
$var wire 1 & b $end
$var wire 1 Q b_bar $end
$var wire 1 R w1 $end
$var wire 1 S w2 $end
$var wire 1 T w3 $end
$var wire 1 U w4 $end
$var wire 1 , xnor_o $end
$var wire 1 + xor_o $end
$scope module INV1 $end
$var wire 1 V GND $end
$var wire 1 W PWR $end
$var wire 1 % in $end
$var wire 1 P out $end
$upscope $end
$scope module INV2 $end
$var wire 1 X GND $end
$var wire 1 Y PWR $end
$var wire 1 & in $end
$var wire 1 Q out $end
$upscope $end
$scope module INV3 $end
$var wire 1 Z GND $end
$var wire 1 [ PWR $end
$var wire 1 S in $end
$var wire 1 + out $end
$upscope $end
$upscope $end
$upscope $end
$upscope $end
$enddefinitions $end
#0
$dumpvars
1[
0Z
1Y
0X
1W
0V
zU
0T
1S
1R
1Q
1P
1O
0N
1M
0L
1K
0J
1I
0H
zG
0F
1E
1D
1C
1B
1A
0@
1?
0>
1=
1<
1;
0:
19
08
17
06
05
z4
13
12
11
10
0/
1.
1-
1,
0+
0*
1)
0(
b0 '
0&
0%
0$
0#
0"
0!
$end
#5
b1 '
#10
b10 '
z5
0-
z3
1"
01
04
z=
0.
1!
0<
1*
0E
0G
zF
0B
1#
#15
b11 '
zD
0C
1$
z5
0-
z3
1"
01
04
z=
0.
1!
0<
1*
0E
zG
0F
1B
0#
#20
b100 '
0G
1D
05
1-
13
0"
11
z4
1=
1.
0!
1<
0*
1E
zF
0B
1#
#25
b101 '
0,
02
1+
0S
0U
zT
0P
1%
1C
0$
zG
1D
05
1-
13
1"
01
z4
1=
0.
1!
0<
0*
1E
0F
1B
0#
#30
b110 '
z5
0"
11
0-
04
z=
1*
0E
0G
zF
0B
1#
#35
b111 '
zD
0C
1$
z5
0"
11
0-
04
z=
1*
0E
zG
0F
1B
0#
#40
b1000 '
0G
1D
05
1"
01
1-
z4
1=
0*
1E
zF
0B
1#
#45
b1001 '
zR
0Q
1&
0,
02
0.
1!
0<
1+
0S
zU
0T
1P
0%
1C
0$
zG
1D
05
1"
01
1-
z4
1=
0*
1E
0F
1B
0#
#50
b1010 '
z5
0"
11
0-
04
z=
1*
0E
0G
zF
0B
1#
#55
b1011 '
zD
0C
1$
z5
0"
11
0-
04
z=
1*
0E
zG
0F
1B
0#
#60
b1100 '
0G
1D
05
1"
01
1-
z4
1=
0*
1E
zF
0B
1#
#65
b1101 '
0U
1R
1,
12
1.
0!
1<
0+
1S
zT
0P
1%
1C
0$
zG
1D
05
0"
11
1-
z4
1=
0*
1E
0F
1B
0#
#70
b1110 '
z5
0-
z3
1"
01
04
z=
0.
1!
0<
1*
0E
0G
zF
0B
1#
#75
b1111 '
zD
0C
1$
z5
0-
z3
1"
01
04
z=
0.
1!
0<
1*
0E
zG
0F
1B
0#
#80
b10000 '
0G
1D
05
1-
13
0"
11
z4
1=
1.
0!
1<
0*
1E
zF
0B
1#
