tb/ksadd4b_tb.vcd
$date
	Thu Aug  5 23:24:56 2021
$end
$version
	Icarus Verilog
$end
$timescale
	1s
$end
$scope module ksadd4b_tb $end
$var wire 1 ! s4 $end
$var wire 1 " s3 $end
$var wire 1 # s2 $end
$var wire 1 $ s1 $end
$var wire 1 % s0 $end
$var reg 1 & cin $end
$var reg 1 ' k0 $end
$var reg 1 ( k1 $end
$var reg 1 ) k2 $end
$var reg 1 * k3 $end
$var reg 1 + t0 $end
$var reg 1 , t1 $end
$var reg 1 - t2 $end
$var reg 1 . t3 $end
$var integer 32 / i [31:0] $end
$scope module KS1 $end
$var wire 1 0 c0 $end
$var wire 1 1 c1 $end
$var wire 1 2 c2 $end
$var wire 1 3 c3 $end
$var wire 1 & cin $end
$var wire 1 4 g0 $end
$var wire 1 5 g1 $end
$var wire 1 6 g2 $end
$var wire 1 7 g3 $end
$var wire 1 ' k0 $end
$var wire 1 ( k1 $end
$var wire 1 ) k2 $end
$var wire 1 * k3 $end
$var wire 1 8 p0 $end
$var wire 1 9 p1 $end
$var wire 1 : p2 $end
$var wire 1 ; p3 $end
$var wire 1 % s0 $end
$var wire 1 $ s1 $end
$var wire 1 # s2 $end
$var wire 1 " s3 $end
$var wire 1 ! s4 $end
$var wire 1 + t0 $end
$var wire 1 , t1 $end
$var wire 1 - t2 $end
$var wire 1 . t3 $end
$var wire 1 < w1 $end
$var wire 1 = w2 $end
$var wire 1 > w3 $end
$scope module AND1 $end
$var wire 1 ? GND $end
$var wire 1 @ PWR $end
$var wire 1 ' a1 $end
$var wire 1 + a2 $end
$var wire 1 A w1 $end
$var wire 1 B w2 $end
$var wire 1 4 y $end
$scope module INV $end
$var wire 1 C GND $end
$var wire 1 D PWR $end
$var wire 1 A in $end
$var wire 1 4 out $end
$upscope $end
$upscope $end
$scope module AND2 $end
$var wire 1 E GND $end
$var wire 1 F PWR $end
$var wire 1 ( a1 $end
$var wire 1 , a2 $end
$var wire 1 G w1 $end
$var wire 1 H w2 $end
$var wire 1 5 y $end
$scope module INV $end
$var wire 1 I GND $end
$var wire 1 J PWR $end
$var wire 1 G in $end
$var wire 1 5 out $end
$upscope $end
$upscope $end
$scope module AND3 $end
$var wire 1 K GND $end
$var wire 1 L PWR $end
$var wire 1 ) a1 $end
$var wire 1 - a2 $end
$var wire 1 M w1 $end
$var wire 1 N w2 $end
$var wire 1 6 y $end
$scope module INV $end
$var wire 1 O GND $end
$var wire 1 P PWR $end
$var wire 1 M in $end
$var wire 1 6 out $end
$upscope $end
$upscope $end
$scope module AND4 $end
$var wire 1 Q GND $end
$var wire 1 R PWR $end
$var wire 1 * a1 $end
$var wire 1 . a2 $end
$var wire 1 S w1 $end
$var wire 1 T w2 $end
$var wire 1 7 y $end
$scope module INV $end
$var wire 1 U GND $end
$var wire 1 V PWR $end
$var wire 1 S in $end
$var wire 1 7 out $end
$upscope $end
$upscope $end
$scope module CG1 $end
$var wire 1 W GND $end
$var wire 1 X PWR $end
$var wire 1 & g0 $end
$var wire 1 4 g1 $end
$var wire 1 0 gout $end
$var wire 1 Y h $end
$var wire 1 8 p1 $end
$var wire 1 Z w1 $end
$var wire 1 [ w2 $end
$scope module INV1 $end
$var wire 1 \ GND $end
$var wire 1 ] PWR $end
$var wire 1 Y in $end
$var wire 1 0 out $end
$upscope $end
$upscope $end
$scope module CG2 $end
$var wire 1 ^ GND $end
$var wire 1 _ PWR $end
$var wire 1 4 g0 $end
$var wire 1 5 g1 $end
$var wire 1 1 gout $end
$var wire 1 ` h $end
$var wire 1 < p1 $end
$var wire 1 a w1 $end
$var wire 1 b w2 $end
$scope module INV1 $end
$var wire 1 c GND $end
$var wire 1 d PWR $end
$var wire 1 ` in $end
$var wire 1 1 out $end
$upscope $end
$upscope $end
$scope module CG3 $end
$var wire 1 e GND $end
$var wire 1 f PWR $end
$var wire 1 5 g0 $end
$var wire 1 6 g1 $end
$var wire 1 2 gout $end
$var wire 1 g h $end
$var wire 1 = p1 $end
$var wire 1 h w1 $end
$var wire 1 i w2 $end
$scope module INV1 $end
$var wire 1 j GND $end
$var wire 1 k PWR $end
$var wire 1 g in $end
$var wire 1 2 out $end
$upscope $end
$upscope $end
$scope module CG4 $end
$var wire 1 l GND $end
$var wire 1 m PWR $end
$var wire 1 6 g0 $end
$var wire 1 7 g1 $end
$var wire 1 3 gout $end
$var wire 1 n h $end
$var wire 1 > p1 $end
$var wire 1 o w1 $end
$var wire 1 p w2 $end
$scope module INV1 $end
$var wire 1 q GND $end
$var wire 1 r PWR $end
$var wire 1 n in $end
$var wire 1 3 out $end
$upscope $end
$upscope $end
$scope module XOR1 $end
$var wire 1 s GND $end
$var wire 1 t PWR $end
$var wire 1 ' a $end
$var wire 1 u a_bar $end
$var wire 1 + b $end
$var wire 1 v b_bar $end
$var wire 1 w w1 $end
$var wire 1 x w2 $end
$var wire 1 y w3 $end
$var wire 1 z w4 $end
$var wire 1 8 xor_o $end
$scope module INV1 $end
$var wire 1 { GND $end
$var wire 1 | PWR $end
$var wire 1 ' in $end
$var wire 1 u out $end
$upscope $end
$scope module INV2 $end
$var wire 1 } GND $end
$var wire 1 ~ PWR $end
$var wire 1 + in $end
$var wire 1 v out $end
$upscope $end
$scope module INV3 $end
$var wire 1 !" GND $end
$var wire 1 "" PWR $end
$var wire 1 x in $end
$var wire 1 8 out $end
$upscope $end
$upscope $end
$scope module XOR2 $end
$var wire 1 #" GND $end
$var wire 1 $" PWR $end
$var wire 1 ( a $end
$var wire 1 %" a_bar $end
$var wire 1 , b $end
$var wire 1 &" b_bar $end
$var wire 1 '" w1 $end
$var wire 1 (" w2 $end
$var wire 1 )" w3 $end
$var wire 1 *" w4 $end
$var wire 1 < xor_o $end
$scope module INV1 $end
$var wire 1 +" GND $end
$var wire 1 ," PWR $end
$var wire 1 ( in $end
$var wire 1 %" out $end
$upscope $end
$scope module INV2 $end
$var wire 1 -" GND $end
$var wire 1 ." PWR $end
$var wire 1 , in $end
$var wire 1 &" out $end
$upscope $end
$scope module INV3 $end
$var wire 1 /" GND $end
$var wire 1 0" PWR $end
$var wire 1 (" in $end
$var wire 1 < out $end
$upscope $end
$upscope $end
$scope module XOR3 $end
$var wire 1 1" GND $end
$var wire 1 2" PWR $end
$var wire 1 < a $end
$var wire 1 3" a_bar $end
$var wire 1 0 b $end
$var wire 1 4" b_bar $end
$var wire 1 5" w1 $end
$var wire 1 6" w2 $end
$var wire 1 7" w3 $end
$var wire 1 8" w4 $end
$var wire 1 9 xor_o $end
$scope module INV1 $end
$var wire 1 9" GND $end
$var wire 1 :" PWR $end
$var wire 1 < in $end
$var wire 1 3" out $end
$upscope $end
$scope module INV2 $end
$var wire 1 ;" GND $end
$var wire 1 <" PWR $end
$var wire 1 0 in $end
$var wire 1 4" out $end
$upscope $end
$scope module INV3 $end
$var wire 1 =" GND $end
$var wire 1 >" PWR $end
$var wire 1 6" in $end
$var wire 1 9 out $end
$upscope $end
$upscope $end
$scope module XOR4 $end
$var wire 1 ?" GND $end
$var wire 1 @" PWR $end
$var wire 1 ) a $end
$var wire 1 A" a_bar $end
$var wire 1 - b $end
$var wire 1 B" b_bar $end
$var wire 1 C" w1 $end
$var wire 1 D" w2 $end
$var wire 1 E" w3 $end
$var wire 1 F" w4 $end
$var wire 1 = xor_o $end
$scope module INV1 $end
$var wire 1 G" GND $end
$var wire 1 H" PWR $end
$var wire 1 ) in $end
$var wire 1 A" out $end
$upscope $end
$scope module INV2 $end
$var wire 1 I" GND $end
$var wire 1 J" PWR $end
$var wire 1 - in $end
$var wire 1 B" out $end
$upscope $end
$scope module INV3 $end
$var wire 1 K" GND $end
$var wire 1 L" PWR $end
$var wire 1 D" in $end
$var wire 1 = out $end
$upscope $end
$upscope $end
$scope module XOR5 $end
$var wire 1 M" GND $end
$var wire 1 N" PWR $end
$var wire 1 = a $end
$var wire 1 O" a_bar $end
$var wire 1 1 b $end
$var wire 1 P" b_bar $end
$var wire 1 Q" w1 $end
$var wire 1 R" w2 $end
$var wire 1 S" w3 $end
$var wire 1 T" w4 $end
$var wire 1 : xor_o $end
$scope module INV1 $end
$var wire 1 U" GND $end
$var wire 1 V" PWR $end
$var wire 1 = in $end
$var wire 1 O" out $end
$upscope $end
$scope module INV2 $end
$var wire 1 W" GND $end
$var wire 1 X" PWR $end
$var wire 1 1 in $end
$var wire 1 P" out $end
$upscope $end
$scope module INV3 $end
$var wire 1 Y" GND $end
$var wire 1 Z" PWR $end
$var wire 1 R" in $end
$var wire 1 : out $end
$upscope $end
$upscope $end
$scope module XOR6 $end
$var wire 1 [" GND $end
$var wire 1 \" PWR $end
$var wire 1 * a $end
$var wire 1 ]" a_bar $end
$var wire 1 . b $end
$var wire 1 ^" b_bar $end
$var wire 1 _" w1 $end
$var wire 1 `" w2 $end
$var wire 1 a" w3 $end
$var wire 1 b" w4 $end
$var wire 1 > xor_o $end
$scope module INV1 $end
$var wire 1 c" GND $end
$var wire 1 d" PWR $end
$var wire 1 * in $end
$var wire 1 ]" out $end
$upscope $end
$scope module INV2 $end
$var wire 1 e" GND $end
$var wire 1 f" PWR $end
$var wire 1 . in $end
$var wire 1 ^" out $end
$upscope $end
$scope module INV3 $end
$var wire 1 g" GND $end
$var wire 1 h" PWR $end
$var wire 1 `" in $end
$var wire 1 > out $end
$upscope $end
$upscope $end
$scope module XOR7 $end
$var wire 1 i" GND $end
$var wire 1 j" PWR $end
$var wire 1 > a $end
$var wire 1 k" a_bar $end
$var wire 1 2 b $end
$var wire 1 l" b_bar $end
$var wire 1 m" w1 $end
$var wire 1 n" w2 $end
$var wire 1 o" w3 $end
$var wire 1 p" w4 $end
$var wire 1 ; xor_o $end
$scope module INV1 $end
$var wire 1 q" GND $end
$var wire 1 r" PWR $end
$var wire 1 > in $end
$var wire 1 k" out $end
$upscope $end
$scope module INV2 $end
$var wire 1 s" GND $end
$var wire 1 t" PWR $end
$var wire 1 2 in $end
$var wire 1 l" out $end
$upscope $end
$scope module INV3 $end
$var wire 1 u" GND $end
$var wire 1 v" PWR $end
$var wire 1 n" in $end
$var wire 1 ; out $end
$upscope $end
$upscope $end
$upscope $end
$upscope $end
$enddefinitions $end
#0
$dumpvars
1v"
0u"
1t"
0s"
1r"
0q"
zp"
0o"
1n"
1m"
1l"
1k"
1j"
0i"
1h"
0g"
1f"
0e"
1d"
0c"
zb"
0a"
1`"
1_"
1^"
1]"
1\"
0["
1Z"
0Y"
1X"
0W"
1V"
0U"
zT"
0S"
1R"
1Q"
1P"
1O"
1N"
0M"
1L"
0K"
1J"
0I"
1H"
0G"
zF"
0E"
1D"
1C"
1B"
1A"
1@"
0?"
1>"
0="
1<"
0;"
1:"
09"
z8"
07"
16"
15"
14"
13"
12"
01"
10"
0/"
1."
0-"
1,"
0+"
z*"
0)"
1("
1'"
1&"
1%"
1$"
0#"
1""
0!"
1~
0}
1|
0{
zz
0y
1x
1w
1v
1u
1t
0s
1r
0q
zp
1o
1n
1m
0l
1k
0j
zi
1h
1g
1f
0e
1d
0c
zb
1a
1`
1_
0^
1]
0\
z[
1Z
1Y
1X
0W
1V
0U
zT
1S
1R
0Q
1P
0O
zN
1M
1L
0K
1J
0I
zH
1G
1F
0E
1D
0C
zB
1A
1@
0?
0>
0=
0<
0;
0:
09
08
07
06
05
04
03
02
01
00
b0 /
0.
0-
0,
0+
0*
0)
0(
0'
0&
0%
0$
0#
0"
0!
$end
#5
b1 /
1$
19
06"
08"
z7"
03"
1<
0("
0*"
z)"
0%"
1(
0N
zC"
1#
1:
0R"
0T"
zS"
0O"
1=
0D"
0B"
1-
#10
b10 /
1"
1;
0n"
0p"
zo"
0k"
1>
0`"
0b"
za"
0]"
1*
0$
09
16"
z8"
07"
13"
0<
1("
z*"
0)"
1%"
0(
zN
1C"
0#
0:
1R"
zT"
0S"
1O"
0=
1D"
1B"
0-
0B
zw
1%
18
0x
0v
1+
#15
b11 /
zb"
z_"
0a"
1]"
0*
0!
03
1n
07
1S
0T
1"
1;
0n"
0p"
zo"
0k"
1>
0`"
0^"
1.
#20
b100 /
zh
zm"
0l"
12
0g
0T"
zS"
0O"
1=
0D"
0F"
zE"
0A"
1)
1Q"
0#
0:
1R"
0P"
11
0`
0i
15
0G
0*"
z)"
0%"
1(
zT
1_"
1"
1;
0n"
zp"
0o"
1k"
0>
1`"
1^"
0.
0H
1'"
0$
09
16"
z8"
07"
13"
0<
1("
0&"
1,
#25
b101 /
zF"
zC"
0E"
1A"
0)
z*"
0)"
1%"
0(
0T
z_"
1o
0!
03
1n
0p"
zo"
0k"
1>
0`"
0^"
1.
zp
06
1M
0N
0T"
zS"
0O"
1=
0D"
0B"
1-
1#
1:
0R"
1P"
01
1`
1h
1m"
1"
1;
0n"
1l"
02
1g
zi
05
1G
zH
0$
09
16"
z8"
07"
13"
0<
1("
1&"
0,
#30
b110 /
1!
13
0n
17
0S
0b"
1_"
0"
0;
1n"
zp"
0o"
1k"
0>
1`"
za"
0]"
1*
#35
b111 /
zm"
zb"
0a"
1]"
0*
0l"
12
0g
1o
0p
16
0M
0F"
1C"
0#
0:
1R"
zT"
0S"
1O"
0=
1D"
zE"
0A"
1)
1$
19
06"
08"
z7"
03"
1<
0("
0*"
z)"
0%"
1(
0!
03
1n
07
1S
zT
1"
1;
0n"
zp"
0o"
1k"
0>
1`"
1^"
0.
#40
b1000 /
zF"
0E"
1A"
0)
1m"
0"
0;
1n"
1l"
02
1g
z*"
z'"
0)"
1%"
0(
0z
zy
0u
1'
zp
06
1M
zN
1h
zT"
0S"
1O"
0=
1D"
1B"
0-
1Q"
0#
0:
1R"
1P"
01
1`
zi
05
1G
0H
1$
19
06"
08"
z7"
03"
1<
0("
0&"
1,
zB
1w
1%
18
0x
1v
0+
#45
b1001 /
zz
zw
0y
1u
0'
zH
1'"
z8"
15"
07"
13"
0<
1("
1&"
0,
0$
09
16"
14"
00
1Y
1a
1Q"
0#
0:
1R"
1P"
01
1`
zb
04
1A
0B
1%
18
0x
0v
1+
#50
b1010 /
0T
z_"
1"
1;
0n"
0p"
zo"
0k"
1>
0`"
0^"
1.
0N
zC"
1#
1:
0R"
0T"
zS"
0O"
1=
0D"
0B"
1-
